@startuml

title __MEDIA's Class Diagram__\n

  namespace fr.cnam.foad.nfa035.badges.wallet.fileutils.streaming {
    namespace media {
      abstract class fr.cnam.foad.nfa035.badges.wallet.fileutils.streaming.media.AbstractImageFrameMedia {
          + AbstractImageFrameMedia()
          + getChannel()
          {abstract} + getEncodedImageInput()
          {abstract} + getEncodedImageOutput()
          + setChannel()
          # AbstractImageFrameMedia()
      }
    }
  }
  

  namespace fr.cnam.foad.nfa035.badges.wallet.fileutils.streaming {
    namespace media {
      interface fr.cnam.foad.nfa035.badges.wallet.fileutils.streaming.media.ImageFrameMedia {
          {abstract} + getChannel()
          {abstract} + getEncodedImageOutput()
      }
    }
  }
  

  namespace fr.cnam.foad.nfa035.badges.wallet.fileutils.streaming {
    namespace media {
      interface fr.cnam.foad.nfa035.badges.wallet.fileutils.streaming.media.ResumableImageFrameMedia {
          {abstract} + getEncodedImageReader()
      }
    }
  }
  

  fr.cnam.foad.nfa035.badges.wallet.fileutils.streaming.media.AbstractImageFrameMedia .up.|> fr.cnam.foad.nfa035.badges.wallet.fileutils.streaming.media.ImageFrameMedia
  fr.cnam.foad.nfa035.badges.wallet.fileutils.streaming.media.AbstractImageFrameMedia o-- T : channel


right footer


PlantUML diagram generated by SketchIt! (https://bitbucket.org/pmesmeur/sketch.it)
For more information about this tool, please contact philippe.mesmeur@gmail.com
endfooter

@enduml
